src/PC/PC_tb.vcd
$date
	Thu Jan 18 08:11:16 2024
$end
$version
	Icarus Verilog
$end
$timescale
	1ps
$end
$scope module PC_tb $end
$var wire 32 ! PC [31:0] $end
$var parameter 32 " max_clks $end
$var reg 32 # PC_Nxt [31:0] $end
$var reg 1 $ clk $end
$var reg 32 % i [31:0] $end
$var reg 1 & rst $end
$scope module dut $end
$var wire 32 ' PC_Nxt [31:0] $end
$var wire 1 $ clk $end
$var wire 1 & rst $end
$var reg 32 ( PC [31:0] $end
$upscope $end
$upscope $end
$enddefinitions $end
$comment Show the parameter values. $end
$dumpall
b11001000 "
$end
#0
$dumpvars
bx (
b10 '
0&
b0 %
0$
b10 #
bx !
$end
#10000
b0 !
b0 (
b1 %
1$
#20000
b10 %
0$
#30000
b11 %
1$
#40000
b100 %
0$
#50000
b101 %
1$
#60000
b110 %
0$
#70000
b111 %
1$
#80000
b1000 %
0$
#90000
b1001 %
1$
#100000
b1010 %
0$
#110000
b1011 %
1$
#120000
b1100 %
0$
#130000
b1101 %
1$
#140000
b1110 %
0$
#150000
b1111 %
1$
#160000
b10000 %
0$
#170000
b10001 %
1$
#180000
b10010 %
0$
#190000
b10011 %
1$
#200000
b10100 %
0$
#210000
b10101 %
1$
#220000
b10110 %
0$
#230000
b10111 %
1$
#240000
b11000 %
0$
#250000
b11001 %
1$
#260000
b11010 %
0$
#270000
b11011 %
1$
#280000
b11100 %
0$
#290000
b11101 %
1$
#300000
b11110 %
0$
#310000
b11111 %
1$
#320000
b100000 %
0$
#330000
b100001 %
1$
#340000
b100010 %
0$
#350000
b100011 %
1$
#360000
b100100 %
0$
#370000
b100101 %
1$
#380000
b100110 %
0$
#390000
b100111 %
1$
#400000
b101000 %
0$
#410000
b101001 %
1$
#420000
b101010 %
0$
#430000
b101011 %
1$
#440000
b101100 %
0$
#450000
b101101 %
1$
#460000
b101110 %
0$
#470000
b101111 %
1$
#480000
b110000 %
0$
#490000
b110001 %
1$
#500000
b110010 %
0$
#510000
b110011 %
1$
#520000
b110100 %
0$
#530000
b110101 %
1$
#540000
b110110 %
0$
#550000
b110111 %
1$
#560000
b111000 %
0$
#570000
b111001 %
1$
#580000
b111010 %
0$
#590000
b111011 %
1$
#600000
b111100 %
0$
#610000
b111101 %
1$
#620000
b111110 %
0$
#630000
b111111 %
1$
#640000
b1000000 %
0$
#650000
b1000001 %
1$
#660000
b1000010 %
0$
#670000
b1000011 %
1$
#680000
b1000100 %
0$
#690000
b1000101 %
1$
#700000
b1000110 %
0$
#710000
b1000111 %
1$
#720000
b1001000 %
0$
#730000
b1001001 %
1$
#740000
b1001010 %
0$
#750000
b1001011 %
1$
#760000
b1001100 %
0$
#770000
b1001101 %
1$
#780000
b1001110 %
0$
#790000
b1001111 %
1$
#800000
b1010000 %
0$
#810000
b1010001 %
1$
#820000
b1010010 %
0$
#830000
b1010011 %
1$
#840000
b1010100 %
0$
#850000
b1010101 %
1$
#860000
b1010110 %
0$
#870000
b1010111 %
1$
#880000
b1011000 %
0$
#890000
b1011001 %
1$
#900000
b1011010 %
0$
#910000
b1011011 %
1$
#920000
b1011100 %
0$
#930000
b1011101 %
1$
#940000
b1011110 %
0$
#950000
b1011111 %
1$
#960000
b1100000 %
0$
#970000
b1100001 %
1$
#980000
b1100010 %
0$
#990000
b1100011 %
1$
#1000000
b1100100 %
0$
#1010000
b1100101 %
1$
#1020000
b1100110 %
0$
#1030000
b1100111 %
1$
#1040000
b1101000 %
0$
#1050000
b1101001 %
1$
#1060000
b1101010 %
0$
#1070000
b1101011 %
1$
#1080000
b1101100 %
0$
#1090000
b1101101 %
1$
#1100000
b1101110 %
0$
#1110000
b1101111 %
1$
#1120000
b1110000 %
0$
#1130000
b1110001 %
1$
#1140000
b1110010 %
0$
#1150000
b1110011 %
1$
#1160000
b1110100 %
0$
#1170000
b1110101 %
1$
#1180000
b1110110 %
0$
#1190000
b1110111 %
1$
#1200000
b1111000 %
0$
#1210000
b1111001 %
1$
#1220000
b1111010 %
0$
#1230000
b1111011 %
1$
#1240000
b1111100 %
0$
#1250000
b1111101 %
1$
#1260000
b1111110 %
0$
#1270000
b1111111 %
1$
#1280000
b10000000 %
0$
#1290000
b10000001 %
1$
#1300000
b10000010 %
0$
#1310000
b10000011 %
1$
#1320000
b10000100 %
0$
#1330000
b10000101 %
1$
#1340000
b10000110 %
0$
#1350000
b10000111 %
1$
#1360000
b10001000 %
0$
#1370000
b10001001 %
1$
#1380000
b10001010 %
0$
#1390000
b10001011 %
1$
#1400000
b10001100 %
0$
#1410000
b10001101 %
1$
#1420000
b10001110 %
0$
#1430000
b10001111 %
1$
#1440000
b10010000 %
0$
#1450000
b10010001 %
1$
#1460000
b10010010 %
0$
#1470000
b10010011 %
1$
#1480000
b10010100 %
0$
#1490000
b10010101 %
1$
#1500000
b10010110 %
0$
#1510000
b10010111 %
1$
#1520000
b10011000 %
0$
#1530000
b10011001 %
1$
#1540000
b10011010 %
0$
#1550000
b10011011 %
1$
#1560000
b10011100 %
0$
#1570000
b10011101 %
1$
#1580000
b10011110 %
0$
#1590000
b10011111 %
1$
#1600000
b10100000 %
0$
#1610000
b10100001 %
1$
#1620000
b10100010 %
0$
#1630000
b10100011 %
1$
#1640000
b10100100 %
0$
#1650000
b10100101 %
1$
#1660000
b10100110 %
0$
#1670000
b10100111 %
1$
#1680000
b10101000 %
0$
#1690000
b10101001 %
1$
#1700000
b10101010 %
0$
#1710000
b10101011 %
1$
#1720000
b10101100 %
0$
#1730000
b10101101 %
1$
#1740000
b10101110 %
0$
#1750000
b10101111 %
1$
#1760000
b10110000 %
0$
#1770000
b10110001 %
1$
#1780000
b10110010 %
0$
#1790000
b10110011 %
1$
#1800000
b10110100 %
0$
#1810000
b10110101 %
1$
#1820000
b10110110 %
0$
#1830000
b10110111 %
1$
#1840000
b10111000 %
0$
#1850000
b10111001 %
1$
#1860000
b10111010 %
0$
#1870000
b10111011 %
1$
#1880000
b10111100 %
0$
#1890000
b10111101 %
1$
#1900000
b10111110 %
0$
#1910000
b10111111 %
1$
#1920000
b11000000 %
0$
#1930000
b11000001 %
1$
#1940000
b11000010 %
0$
#1950000
b11000011 %
1$
#1960000
b11000100 %
0$
#1970000
b11000101 %
1$
#1980000
b11000110 %
0$
#1990000
b11000111 %
1$
#2000000
b11001000 %
0$
#2010000
1&
#2030000
b11 #
b11 '
#2040000
0&
